Efficiently Retrieve and Process Satellite Imagery • rsi
…
Or, if you use pak:

# install.packages("pak")
pak::pak("Permian-Global-Research/rsi")

Example

The spectral_indices() function provides a tibble with data from the Awesome Spectral Indices project:

library(rsi)

spectral_indices()
#> # A tibble: 231 × 9
#>    application_domain bands     contributor   date_of_addition formula long_name
#>    <chr>              <list>    <chr>         <chr>            <chr>   <chr>    
#>  1 vegetation         <chr [2]> https://gith… 2021-11-17       (N - 0… Aerosol …
#>  2 vegetation         <chr [2]> https://gith… 2021-11-17       (N - 0… Aerosol …
#>  3 water              <chr [6]> https://gith… 2022-09-22       (B + G… Augmente…
#>  4 vegetation         <chr [2]> https://gith… 2021-09-20       (1 / G… Anthocya…
#>  5 vegetation         <chr [3]> https://gith… 2022-04-08       N * ((… Anthocya…
#>  6 vegetation         <chr [4]> https://gith… 2021-05-11       (N - (… Atmosphe…
#>  7 vegetation         <chr [4]> https://gith… 2021-05-14       sla * … Adjusted…
#>  8 vegetation         <chr [2]> https://gith… 2022-04-08       (N * (… Advanced…
#>  9 water              <chr [4]> https://gith… 2021-09-18       4.0 * … Automate…
#> 10 water              <chr [5]> https://gith… 2021-09-18       B + 2.… Automate…
#> # ℹ 221 more rows
#> # ℹ 3 more variables: platforms <list>, reference <chr>, short_name <chr>
…
